Version 4
SHEET 1 880 952
WIRE 208 48 64 48
WIRE 320 48 208 48
WIRE 208 96 208 48
WIRE 320 96 320 48
WIRE 528 128 464 128
WIRE 672 128 608 128
WIRE 720 128 672 128
WIRE 208 192 208 176
WIRE 464 192 464 128
WIRE 464 192 208 192
WIRE 320 208 320 176
WIRE 528 208 320 208
WIRE 672 208 608 208
WIRE 720 208 672 208
WIRE 208 224 208 192
WIRE 320 224 320 208
WIRE 208 240 208 224
WIRE 320 240 320 224
WIRE 208 368 208 320
WIRE 272 368 208 368
WIRE 320 368 320 320
WIRE 320 368 272 368
WIRE 272 400 272 368
FLAG 64 128 0
FLAG 208 224 V+
FLAG 320 224 V-
FLAG 272 400 0
FLAG 672 128 Vc+
FLAG 672 208 Vc-
SYMBOL res 192 80 R0
SYMATTR InstName R1
SYMATTR Value {R+dR}
SYMBOL res 192 224 R0
SYMATTR InstName R2
SYMATTR Value {R-dR}
SYMBOL res 304 80 R0
SYMATTR InstName R3
SYMATTR Value {R-dR}
SYMBOL res 304 224 R0
SYMATTR InstName R4
SYMATTR Value {R+dR}
SYMBOL voltage 64 32 R0
WINDOW 123 0 0 Left 0
WINDOW 39 0 0 Left 0
SYMATTR InstName V1
SYMATTR Value 3
SYMBOL voltage 512 208 R270
WINDOW 123 0 0 Left 0
WINDOW 39 0 0 Left 0
SYMATTR InstName V2
SYMATTR Value 0.09
SYMBOL voltage 512 128 R270
WINDOW 123 0 0 Left 0
WINDOW 39 0 0 Left 0
SYMATTR InstName V3
SYMATTR Value 0.1
TEXT -144 936 Left 2 !.tran 0 1 0 0.005
TEXT 88 -64 Left 2 !.param R=1k
TEXT 88 -24 Left 2 !.param dR=1R
